…
# Bring in Flight Delay Data from 2015 to 2024

    delay <- read.csv("delay_core_2015_2024.csv")
    delay <- delay %>% filter(Year%in%c("2015","2016","2017","2018","2019","2020","2021","2022","2023","2024"))

    top10 <- delay %>% group_by(Loc) %>%
      summarise(Total.Delays=sum(Tot.Delays)) %>%
      arrange(desc(Total.Delays))
    top10$Loc[1:10]

    ##  [1] "LGA" "EWR" "SFO" "ORD" "JFK" "LAX" "LAS" "DFW" "BOS" "PHL"

    top10

    ## # A tibble: 30 × 2
    ##    Loc   Total.Delays
    ##    <chr>        <int>
    ##  1 LGA         253372
    ##  2 EWR         228849
    ##  3 SFO         197128
    ##  4 ORD         156422
    ##  5 JFK         109345
    ##  6 LAX         106876
    ##  7 LAS         105991
    ##  8 DFW          94198
    ##  9 BOS          82595
    ## 10 PHL          76603
    ## # ℹ 20 more rows
…
